<?xml version="1.0" encoding="UTF-8" standalone="no"?>
<svg
   xmlns:dc="http://purl.org/dc/elements/1.1/"
   xmlns:cc="http://creativecommons.org/ns#"
   xmlns:rdf="http://www.w3.org/1999/02/22-rdf-syntax-ns#"
   xmlns:svg="http://www.w3.org/2000/svg"
   xmlns="http://www.w3.org/2000/svg"
   xmlns:sodipodi="http://sodipodi.sourceforge.net/DTD/sodipodi-0.dtd"
   xmlns:inkscape="http://www.inkscape.org/namespaces/inkscape"
   width="352.85446mm"
   height="69.223343mm"
   viewBox="0 0 352.85446 69.223342"
   version="1.1"
   id="svg8"
   inkscape:version="1.0.2 (e86c870879, 2021-01-15)"
   sodipodi:docname="logo-tcweb.svg">
  <defs
     id="defs2" />
  <sodipodi:namedview
     id="base"
     pagecolor="#ffffff"
     bordercolor="#666666"
     borderopacity="1.0"
     inkscape:pageopacity="0.0"
     inkscape:pageshadow="2"
     inkscape:zoom="0.35"
     inkscape:cx="481.34169"
     inkscape:cy="195.25354"
     inkscape:document-units="mm"
     inkscape:current-layer="layer1"
     inkscape:document-rotation="0"
     showgrid="false"
     inkscape:snap-global="false"
     showguides="true"
     inkscape:guide-bbox="true"
     fit-margin-top="0"
     fit-margin-left="0"
     fit-margin-right="0"
     fit-margin-bottom="0"
     inkscape:window-width="1920"
     inkscape:window-height="1016"
     inkscape:window-x="0"
     inkscape:window-y="27"
     inkscape:window-maximized="1">
    <sodipodi:guide
       position="44.873425,-0.016448836"
       orientation="0,-1"
       id="guide843" />
  </sodipodi:namedview>
  <metadata
     id="metadata5">
    <rdf:RDF>
      <cc:Work
         rdf:about="">
        <dc:format>image/svg+xml</dc:format>
        <dc:type
           rdf:resource="http://purl.org/dc/dcmitype/StillImage" />
        <dc:title></dc:title>
      </cc:Work>
    </rdf:RDF>
  </metadata>
  <g
     inkscape:label="Calque 1"
     inkscape:groupmode="layer"
     id="layer1"
     transform="translate(-18.344072,-106.77662)">
    <g
       aria-label="TcWeb"
       transform="scale(1.0051094,0.99491662)"
       id="text847"
       style="font-style:normal;font-variant:normal;font-weight:normal;font-stretch:normal;font-size:88.7966px;line-height:1.25;font-family:Amperzand;-inkscape-font-specification:'Amperzand, Normal';font-variant-ligatures:normal;font-variant-caps:normal;font-variant-numeric:normal;font-variant-east-asian:normal;letter-spacing:0px;word-spacing:0px;fill:#2e3440;stroke-width:2.77488">
      <path
         d="m 154.95684,165.31442 q -0.71038,2.13112 -1.24316,4.08465 -0.53278,1.95352 -1.42074,3.46307 -0.88797,1.50954 -2.30871,2.3975 -1.33195,0.79917 -3.72946,0.71038 -3.01908,-0.0888 -4.43983,0 -1.42075,0 -1.59834,-0.88797 -0.17759,-0.97676 0.71037,-3.46307 0.88797,-2.4863 2.5751,-7.6365 l 13.3195,-41.20163 q -3.55187,-0.44398 -7.63651,-0.62157 -4.08465,-0.1776 -7.01493,-0.1776 -6.92614,0 -10.6556,2.93029 -3.64066,2.84149 -3.64066,7.01493 0,0.62158 0.0888,1.42075 0.0888,0.79917 0.79917,1.77593 0.62158,0.79917 1.50954,0 0.71037,-0.53278 1.59834,-0.71037 0.97676,-0.26639 1.95353,-0.26639 1.77593,0 3.01908,1.24315 1.24315,1.24315 1.24315,3.64066 0,1.59834 -1.42074,3.19668 -1.42075,1.59834 -4.43983,1.59834 -1.15436,0 -2.48631,-0.44399 -1.33195,-0.53278 -2.5751,-1.77593 -1.15436,-1.33195 -1.95352,-3.37427 -0.79917,-2.13112 -0.79917,-5.32779 0,-1.33195 0.35518,-3.01909 0.35519,-1.68713 1.24315,-3.55186 0.88797,-1.86473 2.39751,-3.72946 1.50955,-1.86473 3.90705,-3.37427 3.01909,-1.95353 7.45892,-3.01909 4.43983,-1.06555 10.74439,-1.06555 6.12696,0 11.27716,0.44398 5.15021,0.44398 10.478,1.06556 4.35104,0.53278 7.9029,1.06556 3.55186,0.44398 5.3278,0.44398 1.77593,0 3.19667,-0.44398 1.42075,-0.44399 1.42075,-2.13112 0,-0.44398 -0.17759,-0.97676 -0.1776,-0.62158 -0.62158,-1.15436 -0.35519,-0.44398 -0.79917,-1.06556 -0.44398,-0.71037 -0.44398,-1.68713 0,-0.88797 0.71037,-2.04233 0.79917,-1.24315 2.84149,-1.24315 2.6639,0 3.46307,1.68714 0.88797,1.68713 0.88797,3.72945 0,1.15436 -0.71038,3.19668 -0.71037,2.04232 -2.4863,3.99585 -1.68714,1.95352 -4.52863,3.46307 -2.84149,1.42074 -7.01493,1.42074 -2.21991,0 -5.86058,-0.35519 -3.55186,-0.44398 -7.19252,-0.79916 z"
         style="font-style:normal;font-variant:normal;font-weight:normal;font-stretch:normal;font-size:88.7966px;font-family:Amperzand;-inkscape-font-specification:'Amperzand, Normal';font-variant-ligatures:normal;font-variant-caps:normal;font-variant-numeric:normal;font-variant-east-asian:normal;fill:#2e3440;stroke-width:2.77488"
         id="path845" />
      <path
         d="m 201.48618,168.24471 q 0.53278,0.35519 0.0888,0.97676 -0.44399,0.71038 -1.77593,2.04233 -1.24316,1.24315 -3.19668,2.4863 -1.86473,1.24315 -4.35104,2.21992 -2.4863,0.88796 -5.32779,0.88796 -1.50954,0 -3.10788,-0.62157 -1.50955,-0.53278 -2.84149,-1.77594 -1.24316,-1.24315 -2.13112,-3.01908 -0.79917,-1.86473 -0.79917,-4.43983 0,-3.99585 1.59834,-8.96846 1.68713,-5.0614 4.61742,-9.50123 3.01908,-4.43983 7.10373,-7.45892 4.08464,-3.01908 8.87966,-3.01908 1.95352,0 3.28547,0.53278 1.33195,0.53278 2.13112,1.33195 0.79917,0.71037 1.15436,1.59834 0.35518,0.79916 0.35518,1.42074 0,2.04232 -1.33195,3.64066 -1.33194,1.50954 -2.66389,1.50954 -2.8415,0 -3.55187,-2.30871 -0.35518,-1.15435 -1.06556,-1.95352 -0.62157,-0.88797 -1.77593,-0.88797 -1.24315,0 -2.13112,1.59834 -0.88796,1.50954 -2.13112,4.35103 -0.79917,2.04233 -1.50954,3.81826 -0.62157,1.68713 -1.06556,3.55186 -0.44398,1.77593 -0.71037,3.99585 -0.26639,2.13112 -0.26639,5.0614 0,2.04233 0.53278,3.81826 0.62158,1.77593 2.84149,1.77593 2.04232,0 4.17344,-1.06556 2.21992,-1.15435 3.10788,-2.13112 0.44399,-0.62157 0.79917,-0.35518 z"
         style="font-style:normal;font-variant:normal;font-weight:normal;font-stretch:normal;font-size:88.7966px;font-family:Amperzand;-inkscape-font-specification:'Amperzand, Normal';font-variant-ligatures:normal;font-variant-caps:normal;font-variant-numeric:normal;font-variant-east-asian:normal;fill:#2e3440;stroke-width:2.77488"
         id="path847" />
      <path
         d="m 221.82055,160.7858 q 0,-3.46307 1.59834,-8.16929 1.68713,-4.70622 4.26223,-9.67883 2.57511,-4.97261 5.68299,-9.85642 3.19667,-4.88381 6.30455,-8.70207 3.10789,-3.81825 5.68299,-6.12696 2.6639,-2.39751 4.17344,-2.39751 0.62157,0 0.79917,0.35518 0.17759,0.35519 0.17759,0.79917 0,0.26639 -0.17759,0.71038 -0.1776,0.44398 -0.97677,1.42074 -1.86472,2.21992 -4.52862,6.57095 -2.5751,4.35103 -5.06141,9.50124 -2.39751,5.1502 -4.08464,10.56679 -1.68714,5.3278 -1.68714,9.67883 0,5.59419 1.95353,8.61327 2.04232,3.01909 5.41659,3.01909 3.46307,0 6.39336,-1.50955 2.93028,-1.50954 4.88381,-3.90705 -0.71037,-3.28547 -0.88797,-6.48215 -0.0888,-3.19668 -0.0888,-5.32779 0,-1.50955 0.35518,-4.08465 0.35519,-2.5751 1.15436,-5.68298 0.88796,-3.10788 2.30871,-6.48215 1.50954,-3.37427 3.81825,-6.48215 1.77594,-2.30872 3.64066,-3.64066 1.95353,-1.33195 3.55187,-1.33195 1.68713,-0.0888 2.75269,0.62157 1.06556,0.62158 1.59834,1.77593 0.62158,1.15436 0.79917,2.7527 0.26639,1.59834 0.26639,3.37427 0,3.01908 -1.06556,6.65975 -1.06556,3.55186 -2.6639,7.19252 -1.59834,3.55186 -3.55186,6.92613 -1.86473,3.37428 -3.64066,6.03817 0.44398,1.77594 1.33195,3.46307 0.88796,1.68714 2.13112,2.93029 1.33195,1.24315 3.01908,2.04232 1.77593,0.71037 3.81825,0.71037 2.93029,0 6.03817,-1.86473 3.10788,-1.86472 5.68299,-6.57094 1.42074,-2.6639 2.21991,-5.50539 0.88797,-2.84149 1.33195,-5.4166 0.44398,-2.5751 0.53278,-4.70622 0.0888,-2.13111 0.0888,-3.37427 0,-2.5751 -0.35519,-4.35103 -0.26639,-1.86473 -0.97676,-3.19668 -0.62158,-1.42074 -1.68714,-2.5751 -0.97676,-1.15435 -2.4863,-2.4863 -1.33195,-1.24316 -2.30871,-2.5751 -0.88797,-1.42075 -0.88797,-3.19668 0,-1.77593 1.33195,-3.10788 1.33195,-1.33195 3.37427,-1.33195 2.39751,0 4.43983,1.24315 2.04232,1.15436 3.55186,3.37427 1.50955,2.21992 2.30871,5.3278 0.88797,3.10788 0.88797,6.83734 0,3.55186 -0.71037,7.6365 -0.62158,4.08465 -1.86473,8.16929 -1.15436,3.99585 -2.84149,7.9029 -1.68714,3.81825 -3.72946,6.83734 -1.50954,2.21991 -3.37427,4.61742 -1.86473,2.30871 -4.17344,4.26224 -2.30871,1.86472 -5.06141,3.10788 -2.66389,1.15435 -5.68298,1.15435 -5.68298,0 -8.87966,-3.10788 -3.10788,-3.19668 -4.35103,-7.9029 -3.72946,5.06141 -7.9029,8.08049 -4.17344,2.93029 -10.12281,2.93029 -6.12697,0 -10.03402,-4.17344 -3.81825,-4.17344 -3.81825,-11.89874 z m 42.71116,-31.87798 q -0.97676,0 -2.13112,1.33195 -1.06555,1.33195 -1.86472,4.79501 -0.35519,1.50955 -0.71038,3.90705 -0.26639,2.39751 -0.44398,5.06141 -0.17759,2.6639 -0.26639,5.239 0,2.5751 0.17759,4.35103 h 0.35519 q 1.33195,-2.4863 2.5751,-5.41659 1.24315,-2.93029 2.21992,-5.86058 0.97676,-2.93028 1.50954,-5.59418 0.62157,-2.6639 0.62157,-4.79502 0,-1.06556 -0.44398,-2.04232 -0.44398,-0.97676 -1.59834,-0.97676 z"
         style="font-style:normal;font-variant:normal;font-weight:normal;font-stretch:normal;font-size:88.7966px;font-family:Amperzand;-inkscape-font-specification:'Amperzand, Normal';font-variant-ligatures:normal;font-variant-caps:normal;font-variant-numeric:normal;font-variant-east-asian:normal;fill:#2e3440;stroke-width:2.77488"
         id="path849" />
      <path
         d="m 323.22619,167.09036 q 0.44398,0.35518 0.17759,0.88796 -0.62158,1.24315 -2.13112,2.7527 -1.50954,1.50954 -3.72946,2.93028 -2.13112,1.33195 -4.97261,2.30872 -2.84149,0.88796 -6.12696,0.88796 -4.52863,0 -7.45892,-2.5751 -2.93028,-2.5751 -2.93028,-7.37012 0,-2.4863 0.53278,-5.32779 0.62157,-2.93029 1.86472,-5.94937 1.24316,-3.01909 3.28548,-5.94938 2.13112,-2.93029 5.0614,-5.41659 3.28548,-2.84149 7.01494,-4.52863 3.81825,-1.68713 7.8141,-1.68713 3.72945,0 5.32779,1.77593 1.59834,1.77593 1.59834,4.35103 0,3.72946 -2.13112,6.57095 -2.04232,2.7527 -5.94937,4.97261 -3.72946,2.04232 -7.10373,2.93029 -3.37427,0.79917 -5.94937,0.97676 -0.26639,0.62158 -0.53278,2.21992 -0.17759,1.50954 -0.17759,3.37427 0,2.30871 1.24315,4.08464 1.24315,1.68714 3.55186,1.68714 3.28548,0 5.68299,-1.42075 2.3975,-1.50954 3.90705,-3.19668 0.35518,-0.53278 0.71037,-0.26639 z m -15.09543,-10.74439 q 1.15436,0.0888 3.64066,-0.79917 2.48631,-0.88797 4.43983,-2.7527 1.06556,-0.97676 1.95353,-3.01908 0.88797,-2.04232 0.88797,-4.26224 0,-1.06556 -0.44399,-2.04232 -0.44398,-0.97676 -1.95352,-0.97676 -1.24316,0 -2.5751,1.33195 -1.33195,1.33195 -2.48631,3.46306 -1.15435,2.04233 -2.04232,4.52863 -0.88797,2.39751 -1.42075,4.52863 z"
         style="font-style:normal;font-variant:normal;font-weight:normal;font-stretch:normal;font-size:88.7966px;font-family:Amperzand;-inkscape-font-specification:'Amperzand, Normal';font-variant-ligatures:normal;font-variant-caps:normal;font-variant-numeric:normal;font-variant-east-asian:normal;fill:#2e3440;stroke-width:2.77488"
         id="path851" />
      <path
         d="m 359.27756,115.76592 q 0.71037,0 0.79917,0.53278 0.17759,0.44398 -0.0888,1.06556 l -14.38504,32.05557 0.88796,0.44399 q 1.42075,-2.21992 3.01909,-4.35104 1.68713,-2.13112 3.64066,-3.72945 1.95352,-1.68714 4.26223,-2.6639 2.39751,-1.06556 5.3278,-1.06556 1.50954,0 2.75269,0.71037 1.24316,0.71037 2.04233,1.86473 0.88796,1.06556 1.33194,2.4863 0.44399,1.42075 0.44399,2.8415 0,1.86472 -0.44399,4.35103 -0.35518,2.4863 -1.42074,5.3278 -1.06556,2.84149 -2.93029,6.03816 -1.86473,3.10788 -4.79502,6.21577 -1.86472,1.95352 -3.90705,3.64066 -2.04232,1.59834 -4.61742,2.84149 -2.5751,1.15435 -5.86057,1.77593 -3.28548,0.71037 -7.54772,0.71037 -3.19667,0 -5.59418,-1.50954 -2.30871,-1.59834 -2.30871,-4.88381 0,-1.33195 0.26639,-2.93029 0.35518,-1.59834 0.79917,-2.6639 4.61742,-12.69791 9.41244,-24.77425 4.79501,-12.16513 9.76762,-24.33027 z m -19.62405,54.69871 q 0,1.24315 0.53278,1.86473 0.62158,0.62157 2.39751,0.79917 1.50954,0 3.90705,-1.50955 2.48631,-1.50954 4.61742,-4.08464 4.26224,-5.06141 5.94938,-9.59003 1.77593,-4.61743 1.77593,-9.32365 0,-1.95352 -0.62158,-3.10788 -0.62157,-1.15435 -1.59834,-1.15435 -1.77593,0 -4.79501,3.01908 -2.93029,2.93029 -6.12697,7.9917 -1.15435,1.77593 -2.21991,3.99584 -1.06556,2.21992 -1.95353,4.35104 -0.79917,2.13111 -1.33195,3.99584 -0.53278,1.77593 -0.53278,2.7527 z"
         style="font-style:normal;font-variant:normal;font-weight:normal;font-stretch:normal;font-size:88.7966px;font-family:Amperzand;-inkscape-font-specification:'Amperzand, Normal';font-variant-ligatures:normal;font-variant-caps:normal;font-variant-numeric:normal;font-variant-east-asian:normal;fill:#2e3440;stroke-width:2.77488"
         id="path853" />
    </g>
    <path
       style="fill:#bf616a;stroke:none;stroke-width:0.232199px;stroke-linecap:butt;stroke-linejoin:miter;stroke-opacity:1"
       d="m 71.480348,171.7815 c 8.649701,2.40482 27.559054,-27.38221 21.785413,-43.19126 -7.270931,-19.90883 -30.677088,-10.26626 -24.977943,7.36572 10.169954,31.46376 -2.888965,34.13474 3.19253,35.82554 z"
       id="path857"
       sodipodi:nodetypes="ssss" />
    <path
       style="fill:#2e3440;stroke:none;stroke-width:0.171192px;stroke-linecap:butt;stroke-linejoin:miter;stroke-opacity:1"
       d="m 22.354741,153.25275 c -3.371523,5.63751 14.873667,23.99868 27.506492,22.68249 15.908923,-1.65752 13.227356,-19.69469 -0.724063,-18.74465 -24.895878,1.69532 -24.411962,-7.90148 -26.782429,-3.93784 z"
       id="path857-6"
       sodipodi:nodetypes="ssss" />
    <path
       style="fill:#2e3440;stroke:none;stroke-width:0.151612px;stroke-linecap:butt;stroke-linejoin:miter;stroke-opacity:1"
       d="m 41.896284,109.72825 c -4.662232,-3.47949 -22.486491,10.93655 -22.467817,22.18513 0.02353,14.16571 16.156743,13.43219 16.579742,1.05498 0.75481,-22.08679 9.166029,-20.79373 5.888075,-23.24011 z"
       id="path857-6-1"
       sodipodi:nodetypes="ssss" />
    <text
       xml:space="preserve"
       style="font-size:8.46667px;line-height:1.25;font-family:Cantarell;-inkscape-font-specification:'Cantarell, Normal';letter-spacing:0px;word-spacing:0px;stroke-width:0.264583"
       x="106.28977"
       y="132.22491"
       id="text9964"><tspan
         sodipodi:role="line"
         id="tspan9962"
         x="106.28977"
         y="132.22491"
         style="stroke-width:0.264583" /></text>
    <path
       sodipodi:type="spiral"
       style="fill:none;fill-rule:evenodd;stroke:#000000;stroke-width:0.264583"
       id="path856"
       sodipodi:cx="43.371742"
       sodipodi:cy="140.317"
       sodipodi:expansion="2"
       sodipodi:revolution="3.5186601"
       sodipodi:radius="40.645977"
       sodipodi:argument="-21.775249"
       sodipodi:t0="0.70073223"
       d="m 63.32996,140.31699 c 1.571011,12.16906 -8.1261,22.82379 -19.958207,24.21068 -14.614683,1.71305 -27.344737,-9.96743 -28.873507,-24.21066 -1.855117,-17.28373 11.995564,-32.27597 28.873481,-33.94669 20.176252,-1.99722 37.617533,14.21048 39.430259,33.94666 0.408497,4.44754 0.05511,8.95756 -1.019025,13.29189"
       transform="matrix(1.0152261,0.04944432,0.04944432,-1.0152261,2.8561872,368.87733)" />
    <path
       style="fill:#2e3440;stroke:none;stroke-width:0.0818204px;stroke-linecap:butt;stroke-linejoin:miter;stroke-opacity:1"
       d="m 68.683268,100.70066 c 1.288236,-2.863041 -8.390403,-10.568871 -14.314632,-9.244211 -7.460586,1.66818 -5.18836,10.082371 1.382125,8.858491 11.724844,-2.183971 12.02675,2.39869 12.932507,0.38572 z"
       id="path857-6-1-2"
       sodipodi:nodetypes="ssss" />
  </g>
</svg>
