<?xml version="1.0" encoding="UTF-8" standalone="no"?>
<svg
   xmlns:dc="http://purl.org/dc/elements/1.1/"
   xmlns:cc="http://creativecommons.org/ns#"
   xmlns:rdf="http://www.w3.org/1999/02/22-rdf-syntax-ns#"
   xmlns:svg="http://www.w3.org/2000/svg"
   xmlns="http://www.w3.org/2000/svg"
   xmlns:xlink="http://www.w3.org/1999/xlink"
   xmlns:sodipodi="http://sodipodi.sourceforge.net/DTD/sodipodi-0.dtd"
   xmlns:inkscape="http://www.inkscape.org/namespaces/inkscape"
   width="148.69249mm"
   height="148.69249mm"
   viewBox="0 0 148.69249 148.69249"
   version="1.1"
   id="svg8"
   inkscape:version="1.0.2 (e86c870879, 2021-01-15)"
   sodipodi:docname="avatar.svg">
  <defs
     id="defs2">
    <linearGradient
       inkscape:collect="always"
       id="linearGradient1161">
      <stop
         style="stop-color:#fabf8f;stop-opacity:1;"
         offset="0"
         id="stop1157" />
      <stop
         style="stop-color:#fabf8f;stop-opacity:0;"
         offset="1"
         id="stop1159" />
    </linearGradient>
    <linearGradient
       inkscape:collect="always"
       xlink:href="#linearGradient1161"
       id="linearGradient1163"
       x1="106.53804"
       y1="146.66075"
       x2="106.31469"
       y2="136.4272"
       gradientUnits="userSpaceOnUse"
       gradientTransform="translate(24.65788)" />
  </defs>
  <sodipodi:namedview
     id="base"
     pagecolor="#ffffff"
     bordercolor="#666666"
     borderopacity="1.0"
     inkscape:pageopacity="0.0"
     inkscape:pageshadow="2"
     inkscape:zoom="4.8683334"
     inkscape:cx="273.64493"
     inkscape:cy="230.23469"
     inkscape:document-units="mm"
     inkscape:current-layer="layer1"
     inkscape:document-rotation="0"
     showgrid="false"
     inkscape:snap-global="false"
     fit-margin-top="0"
     fit-margin-left="0"
     fit-margin-right="0"
     fit-margin-bottom="0"
     inkscape:window-width="1920"
     inkscape:window-height="1016"
     inkscape:window-x="0"
     inkscape:window-y="27"
     inkscape:window-maximized="1" />
  <metadata
     id="metadata5">
    <rdf:RDF>
      <cc:Work
         rdf:about="">
        <dc:format>image/svg+xml</dc:format>
        <dc:type
           rdf:resource="http://purl.org/dc/dcmitype/StillImage" />
        <dc:title></dc:title>
      </cc:Work>
    </rdf:RDF>
  </metadata>
  <g
     inkscape:label="Calque 1"
     inkscape:groupmode="layer"
     id="layer1"
     transform="translate(-58.201987,-96.88419)">
    <path
       style="fill:#fccb9e;fill-opacity:1;stroke:#fccb9e;stroke-width:0.264583px;stroke-linecap:butt;stroke-linejoin:miter;stroke-opacity:1"
       d="m 104.45086,160.65587 1.63472,6.74797 2.09016,4.06058 6.25358,7.71156 8.28882,5.31636 c 0,0 3.49927,1.37476 5.80715,1.37137 2.30789,-0.003 8.60065,-0.50933 10.29843,-1.08543 1.69779,-0.57611 1.83951,-0.6429 1.83951,-0.6429 0,0 8.22854,-7.0212 8.95815,-7.69422 0.7296,-0.67301 3.68038,-5.3523 4.06806,-6.37395 0.38767,-1.02164 1.80595,-5.03432 1.80595,-5.74643 0,-0.7121 0.50879,-5.06432 0.50879,-5.06432 l 0.81821,0.92218 1.19727,-0.37162 c 0,0 1.11605,-1.02961 1.15975,-1.45707 0.0437,-0.42745 0.61864,-2.13879 0.61864,-2.49589 0,-0.3571 1.43552,-2.31158 1.43552,-2.59631 0,-0.28474 1.08342,-5.43644 1.08342,-5.82699 v -1.25321 l 0.55335,-1.66672 -0.25374,-3.05666 -0.13364,-2.81739 -1.05806,-2.09576 -1.43933,0.3957 c 0,0 0.45112,-4.04296 0.38269,-6.06873 -0.13551,-4.01163 -0.34189,-8.11698 -1.56709,-11.93934 -1.32379,-4.12993 -3.23881,-8.24054 -6.12166,-11.48058 -3.19531,-3.59121 -7.37085,-6.47304 -11.84961,-8.218746 -4.55021,-1.773557 -9.63424,-2.199134 -14.5138,-1.999627 -3.69975,0.151269 -8.26778,1.162721 -10.84408,2.409456 -2.57631,1.246737 -10.28656,7.131867 -11.45259,9.103167 -1.16602,1.9713 -2.44729,3.68827 -3.16701,5.75677 -1.558768,4.47996 -2.57567,10.302 -2.36167,14.03286 0.214,3.73086 0.928478,9.66049 0.928478,9.66049 0,0 -0.923954,-0.62592 -1.638662,-0.37757 -0.714708,0.24835 -1.675122,1.85109 -1.608304,2.53169 0.06682,0.68059 0.03414,3.70258 0.200956,4.5184 0.166817,0.81583 1.048795,1.81038 1.048795,2.37661 0,0.56622 0.619067,4.44027 0.874239,4.85699 0.524063,1.5258 1.384629,3.3269 1.979738,4.23093 0.54333,0.8254 0.58949,2.09732 1.32323,2.86203 0.73374,0.76471 2.85164,1.46435 2.85164,1.46435 z"
       id="path945"
       sodipodi:nodetypes="ccccccscssscccssssccccccsaaaassascsssscssc" />
    <path
       style="fill:#fccb9e;fill-opacity:1;stroke:none;stroke-width:0.264583px;stroke-linecap:butt;stroke-linejoin:miter;stroke-opacity:1"
       d="m 110.67621,174.94835 0.96625,6.71728 c 0,0 14.61961,21.53845 19.25743,27.9646 4.98545,-7.26901 20.84088,-27.84349 20.84088,-27.84349 l 1.02355,-10.02494 c 0,0 -6.78142,13.71069 -19.76414,13.61078 -12.98272,-0.0999 -22.32397,-10.42423 -22.32397,-10.42423 z"
       id="path1294"
       sodipodi:nodetypes="cccccsc" />
    <path
       style="fill:#fabf8f;fill-opacity:1;stroke:#fabf8f;stroke-width:0.264583px;stroke-linecap:butt;stroke-linejoin:miter;stroke-opacity:1"
       d="m 101.69417,142.14511 c 0,0 1.65634,-0.46049 2.81899,2.18805 1.16264,2.64853 3.84154,8.90745 3.84154,8.90745 l 3.64494,9.24393 c 0,0 1.6744,7.17718 3.88437,8.5378 2.20997,1.36061 7.58984,4.33848 9.30154,4.772 1.71171,0.43352 12.43248,-1.01814 15.47376,-0.81861 3.04127,0.19952 9.96462,-13.82921 9.96462,-13.82921 l 5.92218,-20.34665 2.19341,0.0905 -1.65604,4.96037 -1.06605,13.31068 c 0,0 -0.16622,3.69365 -0.54812,5.49402 -0.41278,1.94599 -1.01516,3.87097 -1.8694,5.66751 -1.02141,2.14812 -2.28556,4.21525 -3.84522,6.01113 -2.613,3.00877 -5.6286,5.77856 -9.06898,7.78959 -0.73214,0.42796 -1.56344,0.68474 -2.39138,0.8683 -3.24586,0.71961 -6.6208,1.1359 -9.93539,0.87709 -1.91399,-0.14945 -3.82723,-0.62801 -5.58899,-1.39082 -2.99895,-1.2985 -5.73454,-3.12655 -8.23632,-5.31802 -0.0235,-0.0206 -0.0467,-0.0411 -0.0696,-0.0615 -2.45132,-2.18338 -4.45666,-4.85776 -6.27044,-7.59388 -0.78513,-1.18439 -1.47935,-2.44429 -1.99746,-3.76803 -0.031,-0.0792 -0.0614,-0.15865 -0.0911,-0.23831 -0.83511,-2.23833 -1.65942,-6.97239 -1.65942,-6.97239 z"
       id="path1222"
       sodipodi:nodetypes="csccssscccccsssssssssssscc" />
    <path
       style="fill:#2e3440;stroke:#000000;stroke-width:0.264583px;stroke-linecap:butt;stroke-linejoin:miter;stroke-opacity:1"
       d="m 159.98557,136.93672 -1.27838,4.09771 -2.23602,-0.13469 -0.0471,-8.95412 c 0,0 -0.70763,-9.10225 -1.59722,-11.34663 -0.8896,-2.24439 -3.34114,-8.20634 -5.36397,-10.18767 -2.02283,-1.98133 -6.77604,-6.24312 -8.85589,-5.83887 -2.07984,0.40425 -3.70799,0.71875 -4.92034,0.71875 -1.21234,0 -5.35342,-0.70321 -7.31629,-0.2364 -1.96287,0.4668 -5.41513,0.0892 -8.40805,0.36463 -2.99293,0.27545 -6.03279,-0.14521 -8.41931,1.5168 -2.38651,1.66201 -6.32916,5.67505 -6.87917,7.69999 -0.55001,2.02494 -2.55416,5.43684 -2.50691,7.90472 0.0473,2.46787 -0.73309,6.61109 -0.65594,8.40082 0.0771,1.78974 0.63548,6.29247 0.43127,9.1269 -0.2042,2.83442 -0.25891,1.89779 -0.25891,1.89779 l -1.56969,-0.0235 -0.684412,-3.75053 c -0.373188,-2.80066 -0.657874,-6.73735 -0.967073,-10.35937 0.06584,-4.47381 0.81237,-8.82574 2.357445,-13.28208 0.66656,-1.7713 1.85814,-3.84868 3.29809,-6.1339 3.54773,-4.01255 7.5119,-6.40137 11.45223,-8.883144 3.48258,-1.348818 7.32963,-2.205299 11.6114,-2.474555 4.81117,-0.279957 10.72576,0.844979 14.61126,2.516965 4.64731,2.116054 9.38052,5.178684 12.50479,9.750694 2.46621,4.13044 4.59389,8.28834 5.38436,12.55467 l 0.67707,8.35461 z"
       id="path949"
       sodipodi:nodetypes="ccccsssssssssssccccccccccccc" />
    <path
       style="fill:none;stroke:#2e3440;stroke-width:0.264583px;stroke-linecap:round;stroke-linejoin:round;stroke-opacity:1"
       d="m 120.87192,136.96244 c 0,0 -1.30002,-0.44991 -1.84325,-0.76031 -0.54322,-0.31041 -2.87476,-2.03821 -4.25464,-1.90084 -1.37988,0.13737 -4.02012,1.33156 -4.38702,1.89891 -0.3669,0.56735 -0.98455,1.00814 -0.98455,1.00814"
       id="path953"
       sodipodi:nodetypes="csssc" />
    <path
       style="fill:#2e3440;stroke:#2e3440;stroke-width:0.264583px;stroke-linecap:butt;stroke-linejoin:miter;stroke-opacity:1"
       d="m 112.74338,134.79499 c 0,0 -0.32433,0.86758 -0.24848,1.30328 0.0936,0.53746 0.59312,1.30467 0.8318,1.40949 0.23869,0.10482 2.75545,0.11095 2.75545,0.11095 0,0 0.8666,-0.7474 0.97899,-1.26995 0.10446,-0.48568 -0.34417,-1.45007 -0.34417,-1.45007 0,0 -1.28629,-0.64519 -1.59119,-0.61178 -0.30489,0.0334 -2.3824,0.50808 -2.3824,0.50808 z"
       id="path955"
       sodipodi:nodetypes="cascacsc" />
    <path
       style="fill:none;stroke:#2e3440;stroke-width:0.265;stroke-linecap:round;stroke-linejoin:miter;stroke-miterlimit:4;stroke-dasharray:none;stroke-opacity:1"
       d="m 135.97117,136.97658 c 0,0 1.13756,-0.70372 1.69903,-1.06704 0.61485,-0.39786 1.12951,-0.99903 1.82821,-1.21845 1.50878,-0.47381 2.46966,-1.48277 4.74328,-0.0982 2.26188,1.37743 0.62435,0.37272 2.95079,2.31133 0.33616,0.28012 1.26879,0.33673 1.26879,0.33673"
       id="path959"
       sodipodi:nodetypes="caassc" />
    <path
       style="fill:#2e3440;stroke:#2e3440;stroke-width:0.264583px;stroke-linecap:butt;stroke-linejoin:miter;stroke-opacity:1"
       d="m 140.03334,134.49089 c 0,0 -0.40714,0.78823 -0.42645,1.21794 -0.0432,0.96052 0.98472,1.87264 1.03044,1.75273 l 2.39218,0.0239 c 0,0 1.06135,-0.83377 1.23173,-1.44271 0.14206,-0.50772 -0.2536,-1.5612 -0.2536,-1.5612 0,-0.087 -1.32597,-0.5144 -2.07277,-0.52174 -0.64596,-0.006 -1.90503,0.49186 -1.90153,0.53108 z"
       id="path961"
       sodipodi:nodetypes="csccscsc" />
    <path
       style="fill:none;stroke:#2e3440;stroke-width:0.529167;stroke-linecap:round;stroke-linejoin:miter;stroke-miterlimit:4;stroke-dasharray:none;stroke-opacity:1"
       d="m 120.3854,134.08367 c 0,0 -1.644,-1.25462 -2.61931,-1.50534 -1.60228,-0.41189 -3.36082,-0.32384 -4.96228,0.0912 -1.37278,0.35577 -2.66959,1.08644 -3.75622,1.99766 -0.6855,0.57485 -1.65386,2.11377 -1.65386,2.11377"
       id="path963"
       sodipodi:nodetypes="caaac" />
    <path
       style="fill:none;stroke:#2e3440;stroke-width:0.529167;stroke-linecap:round;stroke-linejoin:miter;stroke-miterlimit:4;stroke-dasharray:none;stroke-opacity:1"
       d="m 135.18349,134.71439 c 0,0 2.27193,-2.24998 3.74227,-2.7054 2.14826,-0.6654 4.60847,-0.53294 6.74471,0.1701 1.31002,0.43113 3.38967,2.37242 3.38967,2.37242 l 0.3613,0.26096"
       id="path965"
       sodipodi:nodetypes="caacc" />
    <path
       style="fill:#2e3440;stroke:#2e3440;stroke-width:0.264583px;stroke-linecap:butt;stroke-linejoin:miter;stroke-opacity:1"
       d="m 123.39924,131.55642 0.33089,-2.83377 c 0,0 -2.62072,-1.68641 -5.88888,-1.45242 -3.26816,0.23398 -6.55024,0.93826 -7.49391,0.97365 -0.94367,0.0354 -2.45269,-0.80946 -3.78784,-0.16828 -1.33514,0.64117 -2.86524,2.0034 -2.89467,2.94222 -0.0294,0.93882 -0.57544,2.96226 -0.57544,2.96226 l 4.08795,-2.40969 c 0,0 4.46662,-1.23807 5.75978,-1.23807 1.29316,0 5.91952,-0.23753 7.1184,0.0907 1.19888,0.3282 3.34372,1.13343 3.34372,1.13343 z"
       id="path967" />
    <path
       style="fill:#2e3440;stroke:#2e3440;stroke-width:0.264583px;stroke-linecap:butt;stroke-linejoin:miter;stroke-opacity:1"
       d="m 133.55617,131.98185 -0.0594,-2.97554 c 0,0 3.43239,-2.28807 6.70055,-2.05408 3.26815,0.23398 5.46709,0.45513 6.41076,0.49052 0.94367,0.0354 2.45269,-0.80946 3.78784,-0.16828 1.33514,0.64117 2.14564,2.43566 2.17506,3.37448 0.0294,0.93882 0.93316,3.37844 0.93316,3.37844 l -3.72606,-3.25813 c 0,0 -4.46662,-1.23807 -5.75978,-1.23807 -1.29316,0 -5.85305,0.15595 -7.05193,0.48418 -1.19889,0.3282 -3.41018,1.96648 -3.41018,1.96648 z"
       id="path967-6"
       sodipodi:nodetypes="ccssssccsscc" />
    <path
       style="fill:#fabf8f;fill-opacity:1;stroke:#f2a76a;stroke-width:0.265;stroke-linecap:round;stroke-linejoin:round;stroke-miterlimit:4;stroke-dasharray:none;stroke-opacity:1"
       d="m 117.76529,163.6057 c 0.80971,1.48362 1.92656,2.54583 3.31481,3.2058 2.42582,1.15324 6.37432,0.92503 8.00112,0.95558 1.64896,0.031 5.55081,0.61695 7.9362,-0.54087 2.27752,-1.10546 5.09347,-5.63373 5.09347,-5.63373 -0.35539,0.20782 -7.31972,1.79496 -9.01428,1.34556 -2.26213,-0.59991 -2.69007,0.41457 -4.42631,0.41457 -1.73625,0 -2.17124,-1.20708 -4.4183,-0.53388 -2.22028,0.66518 -7.00633,-1.33224 -6.86647,-0.75358 0,0 0.21279,1.23463 0.37976,1.54055 z"
       id="path991"
       sodipodi:nodetypes="sasacssscs" />
    <path
       style="fill:none;stroke:#f2a76a;stroke-width:0.264583px;stroke-linecap:butt;stroke-linejoin:miter;stroke-opacity:1"
       d="m 144.23336,156.09656 c 0,0 4.99332,2.02761 4.92261,5.81678 -0.0707,3.78917 -2.12899,11.46963 -2.12899,11.46963"
       id="path993" />
    <path
       style="fill:none;stroke:#f2a76a;stroke-width:0.264583px;stroke-linecap:butt;stroke-linejoin:miter;stroke-opacity:1"
       d="m 115.1516,155.20346 c 0,0 -4.71915,2.60269 -4.20178,6.35704 0.51735,3.75435 3.46762,11.13825 3.46762,11.13825"
       id="path993-8" />
    <path
       id="path1115"
       style="fill:url(#linearGradient1163);fill-opacity:1;stroke:none;stroke-width:0.264583px;stroke-linecap:butt;stroke-linejoin:miter;stroke-opacity:1"
       d="m 128.26809,136.42061 -3.84214,0.092 c 0,0 -0.0541,7.40993 -1.20251,10.26811 -1.00741,2.50716 -4.18567,4.45942 -3.85455,6.34018 0.33112,1.88077 1.45304,2.10521 2.59209,2.42828 0.9978,0.28301 1.66473,-0.21602 3.04943,-0.61805 0.014,-0.004 2.66707,-0.0904 3.14761,0.39067 0.0647,0.0648 0.10928,-0.4632 0.14108,-1.33118 0.0318,0.8753 0.0766,1.40763 0.14159,1.34255 0.48054,-0.48106 3.13361,-0.39467 3.14761,-0.39067 1.38469,0.40203 2.05163,0.90106 3.04943,0.61805 1.13905,-0.32307 2.26097,-0.54751 2.59209,-2.42828 0.33112,-1.88077 -2.84714,-3.83302 -3.85455,-6.34018 -1.14846,-2.85818 -1.20251,-10.26862 -1.20251,-10.26862 l -3.84214,-0.0915 c 0,0 -0.0153,1.18859 -0.031,2.55695 -0.0159,-1.37888 -0.0315,-2.56832 -0.0315,-2.56832 z" />
    <path
       id="path1137"
       style="fill:#fccb9e;fill-opacity:1;stroke:none;stroke-width:0.264583px;stroke-linecap:butt;stroke-linejoin:miter;stroke-opacity:1"
       d="m 128.22675,146.9378 c -0.47116,0.009 -2.35265,0.16214 -2.30322,2.06396 0.0513,1.97252 1.56538,2.35586 2.27856,2.36788 0.70843,0.0119 2.41657,-0.18352 2.47309,-2.35703 0.0521,-2.00253 -2.01355,-2.06579 -2.34249,-2.06344 v -0.0109 c 0,0 -0.0386,-0.002 -0.10594,-5.3e-4 z"
       sodipodi:nodetypes="ssssccs" />
    <path
       id="path1139"
       style="fill:#f2a76a;fill-opacity:1;stroke:none;stroke-width:0.264583px;stroke-linecap:butt;stroke-linejoin:miter;stroke-opacity:1"
       d="m 124.83161,151.53597 c -0.12204,-0.002 -0.24474,0.003 -0.36742,0.015 -1.96286,0.19224 -3.86799,0.69181 -4.26796,1.14619 -0.39602,0.44988 -0.83921,1.04488 -0.41961,1.64021 0.42016,0.59613 0.85489,0.76114 1.21285,0.90072 0.41409,0.16146 0.73082,0.32986 1.28467,0.41754 1.09506,0.17337 1.90977,-0.64865 2.83807,-0.71778 1.57495,-0.11729 2.65794,0.46777 3.25573,0.45035 0.61175,-0.0178 2.2595,-0.49529 3.11856,-0.43898 0.9283,0.0691 1.74301,0.89115 2.83807,0.71778 0.55385,-0.0877 0.87059,-0.25609 1.28468,-0.41754 0.35796,-0.13959 0.79268,-0.3046 1.21284,-0.90073 0.4196,-0.59532 -0.0236,-1.19032 -0.41961,-1.6402 -0.39997,-0.45439 -2.3051,-0.95395 -4.26796,-1.14619 -1.85068,-0.18124 -3.6249,1.24023 -3.82819,1.40819 -0.1569,-0.13049 -1.73472,-1.41186 -3.47472,-1.43454 z"
       sodipodi:nodetypes="sssssssscssssscs" />
    <path
       style="fill:#4c566a;stroke:#4c566a;stroke-width:0.264583px;stroke-linecap:butt;stroke-linejoin:miter;stroke-opacity:1"
       d="m 129.75382,153.69858 c 0.32867,0 0.77639,-0.54282 2.36323,-0.5833 1.59761,-0.0408 1.83453,0.16747 1.90287,0.63254 0.0553,0.3762 -0.86327,0.42213 -1.71911,0.50996 -0.74357,0.0763 -2.54699,-0.5592 -2.54699,-0.5592 z"
       id="path1141"
       sodipodi:nodetypes="csssc" />
    <path
       style="fill:#4c566a;stroke:#4c566a;stroke-width:0.264583px;stroke-linecap:butt;stroke-linejoin:miter;stroke-opacity:1"
       d="m 126.84487,153.68732 c -0.32866,0 -0.77638,-0.54282 -2.36323,-0.5833 -1.59761,-0.0408 -1.83453,0.16747 -1.90287,0.63254 -0.0553,0.3762 0.86327,0.42213 1.71911,0.50996 0.74358,0.0763 2.54699,-0.5592 2.54699,-0.5592 z"
       id="path1141-7"
       sodipodi:nodetypes="csssc" />
    <path
       style="fill:#fabf8f;fill-opacity:1;stroke:#fabf8f;stroke-width:0.264583px;stroke-linecap:butt;stroke-linejoin:miter;stroke-opacity:1"
       d="m 137.47209,139.11064 c -0.003,0.003 4.01703,1.32159 5.67985,1.17751 1.98128,-0.17168 4.99678,-1.62791 4.99038,-1.633 0,0 -1.96636,2.7482 -5.02198,2.53256 -3.05562,-0.21563 -5.64825,-2.07707 -5.64825,-2.07707 z"
       id="path1224"
       sodipodi:nodetypes="cscsc" />
    <path
       style="fill:#fabf8f;fill-opacity:1;stroke:#fabf8f;stroke-width:0.264583px;stroke-linecap:butt;stroke-linejoin:miter;stroke-opacity:1"
       d="m 119.24617,139.54328 c 0.003,0.003 -4.05492,1.46109 -5.71774,1.31701 -1.98128,-0.17168 -4.35518,-1.15116 -4.34878,-1.15625 0,0 1.36265,2.13195 4.41827,1.91631 3.05562,-0.21563 5.64825,-2.07707 5.64825,-2.07707 z"
       id="path1224-4"
       sodipodi:nodetypes="cscsc" />
    <path
       style="fill:none;stroke:#f2a76a;stroke-width:0.264583px;stroke-linecap:round;stroke-linejoin:round;stroke-opacity:1"
       d="m 117.545,162.02464 c 1.34412,0.89791 5.18967,2.89559 11.30681,2.94713 6.99906,0.059 11.83493,-2.50059 13.04434,-3.33403"
       id="path1246"
       sodipodi:nodetypes="csc" />
    <path
       style="fill:none;stroke:#f2a76a;stroke-width:0.264583px;stroke-linecap:round;stroke-linejoin:round;stroke-opacity:1"
       d="m 150.02793,137.44218 c 1.76137,0.20816 3.42302,-1.10115 4.5635,-1.21193"
       id="path1248" />
    <path
       style="fill:none;stroke:#f2a76a;stroke-width:0.264583px;stroke-linecap:round;stroke-linejoin:round;stroke-opacity:1"
       d="m 150.50678,135.86321 c 1.76137,0.20816 3.42302,-1.10115 4.5635,-1.21193"
       id="path1248-0" />
    <path
       style="fill:none;stroke:#f2a76a;stroke-width:0.265;stroke-linecap:round;stroke-linejoin:round;stroke-miterlimit:4;stroke-dasharray:none;stroke-opacity:1"
       d="m 107.50152,138.53677 c -1.76137,0.20816 -2.82043,-0.98246 -3.96091,-1.09324"
       id="path1248-7"
       sodipodi:nodetypes="cc" />
    <path
       style="fill:none;stroke:#f2a76a;stroke-width:0.265;stroke-linecap:round;stroke-linejoin:round;stroke-miterlimit:4;stroke-dasharray:none;stroke-opacity:1"
       d="m 107.16228,137.38342 c -1.76137,0.20816 -2.72698,-1.49835 -3.86746,-1.60913"
       id="path1248-0-8"
       sodipodi:nodetypes="cc" />
    <path
       style="fill:#eceff4;stroke:#eceff4;stroke-width:0.264583px;stroke-linecap:butt;stroke-linejoin:miter;stroke-opacity:1"
       d="m 151.72577,181.00768 -20.78025,28.60184 -19.35747,-27.82873 19.67156,57.0555 z"
       id="path1298" />
    <path
       style="fill:#bf616a;stroke:#bf616a;stroke-width:0.264583px;stroke-linecap:butt;stroke-linejoin:miter;stroke-opacity:1"
       d="m 125.17605,243.36281 12.47699,0.3844 -3.70915,-27.02094 -6.16228,-0.10518 z"
       id="path1302"
       sodipodi:nodetypes="ccccc" />
    <path
       style="fill:#2e3440;stroke:#2e3440;stroke-width:0.269724px;stroke-linecap:butt;stroke-linejoin:miter;stroke-opacity:1"
       d="m 83.147734,193.4849 -0.152607,51.95651 99.106143,0.23118 -0.18419,-53.9598 -30.31083,-10.74434 -20.33002,60.47921 -19.80948,-59.50691 z"
       id="path1296"
       sodipodi:nodetypes="cccccccc" />
    <rect
       style="fill:#bf616a;fill-opacity:1;stroke:#bf616a;stroke-width:0.264999;stroke-linecap:round;stroke-linejoin:round;stroke-miterlimit:4;stroke-dasharray:none;stroke-opacity:1"
       id="rect1300"
       width="7.2256918"
       height="7.4809408"
       x="240.60394"
       y="55.330666"
       transform="rotate(45)" />
    <rect
       style="fill:#fabf8f;fill-opacity:1;stroke:none;stroke-width:0.264999;stroke-linecap:round;stroke-linejoin:round;stroke-miterlimit:4;stroke-dasharray:none;stroke-opacity:1"
       id="rect1322"
       width="6.6294541"
       height="5.4631858"
       x="14.795457"
       y="166.94646" />
    <rect
       style="fill:#fccb9e;fill-opacity:1;stroke:none;stroke-width:0.264999;stroke-linecap:round;stroke-linejoin:round;stroke-miterlimit:4;stroke-dasharray:none;stroke-opacity:1"
       id="rect1324"
       width="7.4112964"
       height="4.9276047"
       x="14.309007"
       y="159.38031" />
    <rect
       style="fill:#f2a76a;fill-opacity:1;stroke:none;stroke-width:0.264999;stroke-linecap:round;stroke-linejoin:round;stroke-miterlimit:4;stroke-dasharray:none;stroke-opacity:1"
       id="rect1326"
       width="7.1644163"
       height="4.2324195"
       x="14.287324"
       y="176.21213" />
  </g>
</svg>
